42.97 -9.579999999999998 4.4 
42.97 -0.01999999999999602 4.4 
42.97 -5.019999999999996 4.4 
-42.570000000000014 -9.579999999999998 4.4 
-42.570000000000014 -4.579999999999998 4.4 
-42.570000000000014 -0.01999999999999602 4.4 
42.59699999999998 -9.579999999999998 4.6 
42.59699999999998 -0.01999999999999602 4.6 
42.59699999999998 -5.019999999999996 4.6 
-42.19700000000001 -9.579999999999998 4.6 
-42.19700000000001 -4.579999999999998 4.6 
42.17699999999999 -9.579999999999998 4.8 
42.17699999999999 -0.01999999999999602 4.8 
42.125999999999976 -5.019999999999996 4.8 
-41.77700000000001 -0.01999999999999602 4.8 
-41.77700000000001 -9.579999999999998 4.8 
41.70599999999999 -0.01999999999999602 5.0 
41.40899999999999 -5.019999999999996 5.0 
41.40899999999999 -9.579999999999998 5.0 
-41.009000000000015 -4.579999999999998 5.0 
-41.009000000000015 -0.01999999999999602 5.0 
40.988999999999976 -0.01999999999999602 5.2 
39.36499999999998 -5.019999999999996 5.2 
39.36499999999998 -9.579999999999998 5.2 
-40.58900000000001 -9.579999999999998 5.2 
-38.96500000000001 -4.579999999999998 5.2 
38.94499999999999 -0.01999999999999602 5.4 
37.964999999999975 -5.019999999999996 5.4 
37.964999999999975 -9.579999999999998 5.4 
-38.54500000000001 -9.579999999999998 5.4 
-37.56500000000001 -0.01999999999999602 5.4 
37.54499999999999 -0.01999999999999602 5.6 
36.565 -5.019999999999996 5.6 
36.565 -9.579999999999998 5.6 
-37.14500000000001 -9.579999999999998 5.6 
-36.16500000000001 -4.579999999999998 5.6 
36.14499999999998 -0.01999999999999602 5.8 
35.16499999999999 -5.019999999999996 5.8 
35.16499999999999 -9.579999999999998 5.8 
-35.745000000000005 -9.579999999999998 5.8 
-34.765000000000015 -0.01999999999999602 5.8 
34.744999999999976 -0.01999999999999602 6.0 
33.764999999999986 -5.019999999999996 6.0 
33.764999999999986 -9.579999999999998 6.0 
-34.34500000000001 -9.579999999999998 6.0 
-33.36500000000001 -4.579999999999998 6.0 
33.345 -0.01999999999999602 6.2 
32.36499999999998 -5.019999999999996 6.2 
32.36499999999998 -9.579999999999998 6.2 
-32.94500000000001 -9.579999999999998 6.2 
-31.965000000000018 -0.01999999999999602 6.2 
31.944999999999993 -0.01999999999999602 6.4 
30.964999999999975 -5.019999999999996 6.4 
30.964999999999975 -9.579999999999998 6.4 
-31.545000000000016 -9.579999999999998 6.4 
-30.565000000000012 -4.579999999999998 6.4 
30.544999999999987 -0.01999999999999602 6.6 
29.564999999999998 -5.019999999999996 6.6 
29.564999999999998 -9.579999999999998 6.6 
-30.14500000000001 -9.579999999999998 6.6 
-29.165000000000006 -0.01999999999999602 6.6 
29.144999999999982 -0.01999999999999602 6.8 
28.164999999999992 -5.019999999999996 6.8 
28.164999999999992 -9.579999999999998 6.8 
-28.745000000000005 -9.579999999999998 6.8 
-27.765000000000015 -4.579999999999998 6.8 
27.74499999999999 -0.01999999999999602 7.0 
26.764999999999986 -5.019999999999996 7.0 
26.764999999999986 -9.579999999999998 7.0 
-27.345000000000013 -9.579999999999998 7.0 
-26.36500000000001 -0.01999999999999602 7.0 
26.344999999999985 -0.01999999999999602 7.2 
25.364999999999995 -5.019999999999996 7.2 
25.364999999999995 -9.579999999999998 7.2 
-25.945000000000007 -9.579999999999998 7.2 
-24.965000000000018 -4.579999999999998 7.2 
24.944999999999993 -0.01999999999999602 7.4 
23.96499999999999 -5.019999999999996 7.4 
23.96499999999999 -9.579999999999998 7.4 
-24.545000000000016 -9.579999999999998 7.4 
-23.565000000000012 -0.01999999999999602 7.4 
23.544999999999987 -0.01999999999999602 7.6 
22.564999999999984 -5.019999999999996 7.6 
22.564999999999984 -9.579999999999998 7.6 
-23.14500000000001 -9.579999999999998 7.6 
-22.165000000000006 -4.579999999999998 7.6 
22.144999999999982 -0.01999999999999602 7.8 
21.164999999999992 -5.019999999999996 7.8 
21.164999999999992 -9.579999999999998 7.8 
-21.745000000000005 -9.579999999999998 7.8 
-20.765000000000015 -0.01999999999999602 7.8 
20.74499999999999 -0.01999999999999602 8.0 
19.764999999999986 -5.019999999999996 8.0 
19.764999999999986 -9.579999999999998 8.0 
-20.345000000000013 -9.579999999999998 8.0 
-19.36500000000001 -4.579999999999998 8.0 
19.344999999999985 -0.01999999999999602 8.2 
18.364999999999995 -5.019999999999996 8.2 
18.364999999999995 -9.579999999999998 8.2 
-18.945000000000007 -9.579999999999998 8.2 
-17.965000000000018 -0.01999999999999602 8.2 
17.944999999999993 -0.01999999999999602 8.4 
16.96499999999999 -5.019999999999996 8.4 
16.96499999999999 -9.579999999999998 8.4 
-17.545000000000016 -9.579999999999998 8.4 
-16.565000000000012 -4.579999999999998 8.4 
16.544999999999987 -0.01999999999999602 8.6 
15.564999999999984 -5.019999999999996 8.6 
15.564999999999984 -9.579999999999998 8.6 
-16.14500000000001 -9.579999999999998 8.6 
-15.165000000000006 -0.01999999999999602 8.6 
15.144999999999982 -0.01999999999999602 8.8 
14.164999999999992 -5.019999999999996 8.8 
14.164999999999992 -9.579999999999998 8.8 
-14.745000000000005 -9.579999999999998 8.8 
-13.765000000000015 -4.579999999999998 8.8 
13.74499999999999 -0.01999999999999602 9.0 
12.764999999999986 -5.019999999999996 9.0 
12.764999999999986 -9.579999999999998 9.0 
-13.345000000000013 -9.579999999999998 9.0 
-12.365000000000009 -0.01999999999999602 9.0 
12.344999999999985 -0.01999999999999602 9.2 
11.364999999999995 -5.019999999999996 9.2 
11.364999999999995 -9.579999999999998 9.2 
-11.945000000000007 -9.579999999999998 9.2 
-10.965000000000018 -4.579999999999998 9.2 
10.944999999999993 -0.01999999999999602 9.4 
9.96499999999999 -5.019999999999996 9.4 
9.96499999999999 -9.579999999999998 9.4 
-10.545000000000016 -9.579999999999998 9.4 
-9.565000000000012 -0.01999999999999602 9.4 
9.544999999999987 -0.01999999999999602 9.6 
8.564999999999984 -5.019999999999996 9.6 
8.564999999999984 -9.579999999999998 9.6 
-9.14500000000001 -9.579999999999998 9.6 
-8.165000000000006 -4.579999999999998 9.6 
8.144999999999982 -0.01999999999999602 9.8 
7.164999999999992 -5.019999999999996 9.8 
7.164999999999992 -9.579999999999998 9.8 
-7.7450000000000045 -9.579999999999998 9.8 
-6.765000000000015 -0.01999999999999602 9.8 
6.74499999999999 -0.01999999999999602 10.0 
5.764999999999986 -5.019999999999996 10.0 
5.764999999999986 -9.579999999999998 10.0 
-6.345000000000013 -9.579999999999998 10.0 
-5.365000000000009 -4.579999999999998 10.0 
-4.945000000000007 -9.579999999999998 10.2 
0.05499999999999261 -9.579999999999998 10.2 
5.054999999999993 -9.579999999999998 10.2 
5.344999999999985 -0.01999999999999602 10.2 
0.34499999999998465 -0.01999999999999602 10.2 
-4.655000000000015 -0.01999999999999602 10.2 
-1.981932188134536 -7.359067811865472 10.2 
-1.6002702141870628 -3.8233380151995533 10.2 
1.0062702141870403 -5.776661984800441 10.2 
4.924270214187047 -5.776661984800441 10.2 
2.693932188134511 -2.240932188134522 10.2 
3.9709999999999894 0.4000000000000057 15.2 
2.5009999999999906 3.198999999999998 15.2 
-0.6180000000000092 3.8900000000000006 15.2 
-3.0730000000000075 2.0900000000000034 15.2 
-3.5660000000000167 -10.0 15.2 
-2.1010000000000133 -12.798999999999992 15.2 
1.0179999999999865 -13.489999999999995 15.2 
3.4729999999999848 -11.689999999999998 15.2 
-3.5800000000000125 34.980000000000004 20.2 
-3.5800000000000125 29.980000000000004 20.2 
-3.5800000000000125 24.980000000000004 20.2 
-3.5800000000000125 19.980000000000004 20.2 
-3.5800000000000125 14.980000000000004 20.2 
-3.5800000000000125 9.980000000000004 20.2 
-3.5800000000000125 4.980000000000004 20.2 
3.9799999999999898 7.028999999999996 20.2 
3.9799999999999898 12.028999999999996 20.2 
3.9799999999999898 17.028999999999996 20.2 
3.9799999999999898 22.028999999999996 20.2 
3.9799999999999898 27.028999999999996 20.2 
3.9799999999999898 32.028999999999996 20.2 
2.3049999999999926 34.712 20.2 
0.17646609406725133 31.617533905932746 20.2 
0.22328223964149174 28.306214445688852 20.2 
0.17671776035848552 25.087785554311154 20.2 
0.22353390593272593 21.77646609406726 20.2 
0.17671776035849973 18.558785554311143 20.2 
0.22328223964149174 15.247214445688854 20.2 
0.17646609406725133 12.029533905932738 20.2 
0.22328223964147753 8.718214445688858 20.2 
3.711999999999989 3.923000000000002 20.2 
0.22353390593272593 4.800466094067261 20.2 
