-42.10000000000001 -7.079999999999998 10.2 
-37.10000000000001 -7.079999999999998 10.2 
-32.10000000000001 -7.079999999999998 10.2 
-27.10000000000001 -7.079999999999998 10.2 
-22.10000000000001 -7.079999999999998 10.2 
-17.10000000000001 -7.079999999999998 10.2 
-12.100000000000009 -7.079999999999998 10.2 
-7.500000000000014 -7.079999999999998 10.2 
-7.500000000000014 7.480000000000004 10.2 
-12.500000000000014 7.480000000000004 10.2 
-17.500000000000014 7.480000000000004 10.2 
-22.500000000000014 7.480000000000004 10.2 
-27.500000000000014 7.480000000000004 10.2 
-32.500000000000014 7.480000000000004 10.2 
-37.500000000000014 7.480000000000004 10.2 
-42.10000000000001 7.480000000000004 10.2 
-42.099398282201804 -3.39460171779821 10.2 
-38.95265995216896 -3.276592144797334 10.2 
-41.71768009566213 0.14118428959467622 10.2 
-35.57002014349318 -3.3942235656079873 10.2 
-38.57031990433789 0.25881571040532947 10.2 
-42.105979856506835 3.794223565607993 10.2 
-32.42353390593274 -3.27646609406726 10.2 
-38.72346609406728 3.6764660940672655 10.2 
-35.18793218813454 0.1409321881345278 10.2 
-29.041020143493185 -3.3942235656079873 10.2 
-32.0413199043379 0.25881571040532947 10.2 
-35.57697985650684 3.794223565607993 10.2 
-25.89365995216896 -3.276592144797334 10.2 
-32.194340047831076 3.6765921447973398 10.2 
-28.658680095662135 0.14118428959467622 10.2 
-22.511398282201796 -3.39460171779821 10.2 
-25.512067811865492 0.2590678118654779 10.2 
-29.04760171779823 3.7946017177982156 10.2 
-19.36465995216895 -3.276592144797334 10.2 
-25.665340047831066 3.6765921447973398 10.2 
-22.129680095662124 0.14118428959467622 10.2 
-15.982020143493187 -3.3942235656079873 10.2 
-18.9823199043379 0.25881571040532947 10.2 
-22.51797985650684 3.794223565607993 10.2 
-12.834659952168948 -3.276592144797334 10.2 
-19.13546609406727 3.6764660940672655 10.2 
-15.599932188134531 0.1409321881345278 10.2 
-9.453020143493191 -3.3942235656079873 10.2 
-12.453319904337889 0.25881571040532947 10.2 
-15.98897985650683 3.794223565607993 10.2 
-12.606340047831068 3.6765921447973398 10.2 
-9.070680095662127 0.14118428959467622 10.2 
-9.459601717798222 3.7946017177982156 10.2 
